{
  "ClientSecrets": [ { "Value": "K7gNU3sdo+OL0wNhqoVWhr3g6s1xYv72ol/pe/Unols=" } ],
  "AllowedGrantTypes": [ "authorization_code" ],
  "RequireConsent": false,
  "RequirePkce": true,
  "RedirectUris": [ "http://localhost:8001/signin-oidc" ],
  "PostLogoutRedirectUris": [ "http://localhost:8001/signout-callback-oidc" ],
  "AllowedScopes": [
    "openid",
    "profile"
  ],
  "AllowOfflineAccess": true,
  "UpdateAccessTokenClaimsOnRefresh": true
}